{
  "defaultSeverity": "error",
  "extends": [
    "tslint:recommended"
  ],
  "jsRules": {},
  "rules": {
    "arrow-parens": false,
    "no-console": true,
    "no-shadowed-variable": false,
    "no-unused-expression": true,
    "object-literal-sort-keys": false,
    "quotemark": [
      true,
      "single",
      "jsx-double"
    ],
    "radix": false,
    "trailing-comma": false,
    "ordered-imports": false,
    "no-angle-bracket-type-assertion": false,
    "member-access": false
  }
}